…
## Change level values

You can recode specified factor levels with [`fct_recode()`](https://hadley.github.io/forcats/fct_recode.html):

```r
gss_cat %>% count(partyid)
#> # A tibble: 10 × 2
#>              partyid     n
#>               <fctr> <int>
#> 1          No answer   154
#> 2         Don't know     1
#> 3        Other party   393
#> 4  Strong republican  2314
#> 5 Not str republican  3032
#> 6       Ind,near rep  1791
#> # ... with 4 more rows

gss_cat %>%
  mutate(partyid = fct_recode(partyid,
    "Republican, strong"    = "Strong republican",
    "Republican, weak"      = "Not str republican",
    "Independent, near rep" = "Ind,near rep",
    "Independent, near dem" = "Ind,near dem",
    "Democrat, weak"        = "Not str democrat",
    "Democrat, strong"      = "Strong democrat"
  )) %>%
  count(partyid)
#> # A tibble: 10 × 2
#>                 partyid     n
#>                  <fctr> <int>
#> 1             No answer   154
#> 2            Don't know     1
#> 3           Other party   393
#> 4    Republican, strong  2314
#> 5      Republican, weak  3032
#> 6 Independent, near rep  1791
#> # ... with 4 more rows
```
…
gss_cat %>%
  mutate(relig = fct_lump(relig, prop = -0.10)) %>%
  count(relig)
#> # A tibble: 12 × 2
#>                     relig     n
#>                    <fctr> <int>
#> 1               No answer    93
#> 2              Don't know    15
#> 3 Inter-nondenominational   109
#> 4         Native american    23
#> 5               Christian   689
#> 6      Orthodox-christian    95
#> # ... with 6 more rows
```
…
