…
### Character encoding

We have done a lot of work to ensure that dplyr works with encodings other that Latin1 on Windows. This is most likely to affect you if you work with data that contains Chinese, Japanese, or Korean (CJK) characters. dplyr should now just work with such data.

### Tidyeval

dplyr has a new approach to non-standard evaluation (NSE) called tidyeval. Tidyeval is described in detail in a new [vignette about programming with dplyr](http://dplyr.tidyverse.org/articles/programming.html) but, in brief, it gives you the ability to interpolate values in contexts where dplyr usually works with expressions:

```r
my_var <- quo(homeworld)

starwars %>%
  group_by(!!my_var) %>%
  summarise_at(vars(height:mass), mean, na.rm = TRUE)
#> # A tibble: 49 × 3
#>         homeworld   height  mass
#>             <chr>    <dbl> <dbl>
#> 1        Alderaan 176.3333  64.0
#> 2     Aleen Minor  79.0000  15.0
#> 3          Bespin 175.0000  79.0
#> 4      Bestine IV 180.0000 110.0
#> 5  Cato Neimoidia 191.0000  90.0
#> 6           Cerea 198.0000  82.0
#> 7        Champala 196.0000   NaN
#> 8       Chandrila 150.0000   NaN
#> 9    Concord Dawn 183.0000  79.0
#> 10       Corellia 175.0000  78.5
#> # ... with 39 more rows
```
…
