…
## Features

dplyr 0.7.0 is a major release including over 100 improvements and bug fixes, as described in the [release notes](https://github.com/tidyverse/dplyr/releases/tag/v0.7.0). In this blog post, I want to discuss one big change and a handful of smaller updates. This version of dplyr also saw a major revamp of database connections. That's a big topic, so it'll get its own blog post next week.

### Tidy evaluation

The biggest change is a new system for programming with dplyr, called **tidy evaluation**, or tidy eval for short. Tidy eval is a system for capturing expressions and later evaluating them in the correct context. It is is important because it allows you to interpolate values in contexts where dplyr usually works with expressions:

```r
my_var <- quo(homeworld)

starwars %>%
  group_by(!!my_var) %>%
  summarise_at(vars(height:mass), mean, na.rm = TRUE)
#> # A tibble: 49 x 3
#>         homeworld   height  mass
#>
#>  1       Alderaan 176.3333  64.0
#>  2    Aleen Minor  79.0000  15.0
#>  3         Bespin 175.0000  79.0
#>  4     Bestine IV 180.0000 110.0
#>  5 Cato Neimoidia 191.0000  90.0
#>  6          Cerea 198.0000  82.0
#>  7       Champala 196.0000   NaN
#>  8      Chandrila 150.0000   NaN
#>  9   Concord Dawn 183.0000  79.0
#> 10       Corellia 175.0000  78.5
#> # ... with 39 more rows
```
…
The introduction of tidy evaluation means that the standard evaluation (underscored) version of each main verb (`filter_()`, `select_()` etc) is no longer needed, and so these functions have been deprecated (but remain around for backward compatibility).

### Character encoding

We have done a lot of work to ensure that dplyr works with encodings other than Latin1 on Windows. This is most likely to affect you if you work with data that contains Chinese, Japanese, or Korean (CJK) characters. dplyr should now just work with such data. Please let us know if you have problems!

### New datasets

dplyr has some new datasets that will help write more interesting examples:

  * `starwars`, shown above, contains information about characters from the Star Wars movies, sourced from the [Star Wars API](https://swapi.co). It contains a number of list-columns.

```r
starwars
#> # A tibble: 87 x 13
#>                  name height  mass    hair_color  skin_color eye_color
#>
#>  1     Luke Skywalker    172    77         blond        fair      blue
#>  2              C-3PO    167    75                  gold    yellow
#>  3              R2-D2     96    32           white, blue       red
#>  4        Darth Vader    202   136          none       white    yellow
#>  5        Leia Organa    150    49         brown       light     brown
#>  6          Owen Lars    178   120   brown, grey       light      blue
#>  7 Beru Whitesun lars    165    75         brown       light      blue
#>  8              R5-D4     97    32            white, red       red
#>  9  Biggs Darklighter    183    84         black       light     brown
#> 10     Obi-Wan Kenobi    182    77 auburn, white        fair blue-gray
#> # ... with 77 more rows, and 7 more variables: birth_year ,
#> #   gender , homeworld , species , films ,
#> #   vehicles , starships
```

  * `storms` has the trajectories of ~200 tropical storms. It contains a strong grouping structure.

```r
storms
#> # A tibble: 10,010 x 13
#>     name  year month   day  hour   lat  long              status category
#>
#>  1   Amy  1975     6    27     0  27.5 -79.0 tropical depression       -1
#>  2   Amy  1975     6    27     6  28.5 -79.0 tropical depression       -1
#>  3   Amy  1975     6    27    12  29.5 -79.0 tropical depression       -1
#>  4   Amy  1975     6    27    18  30.5 -79.0 tropical depression       -1
#>  5   Amy  1975     6    28     0  31.5 -78.8 tropical depression       -1
#>  6   Amy  1975     6    28     6  32.4 -78.7 tropical depression       -1
#>  7   Amy  1975     6    28    12  33.3 -78.0 tropical depression       -1
#>  8   Amy  1975     6    28    18  34.0 -77.0 tropical depression       -1
#>  9   Amy  1975     6    29     0  34.4 -75.8      tropical storm        0
#> 10   Amy  1975     6    29     6  34.0 -74.8      tropical storm        0
#> # ... with 10,000 more rows, and 4 more variables: wind ,
#> #   pressure , ts_diameter , hu_diameter
```
…
