…
  * Is more resilient to the wondrous diversity in spreadsheets, e.g., those written by 3rd party tools

You can see a full list of changes in the [release notes](http://readxl.tidyverse.org/news/index.html). This is the first release maintained by Jenny Bryan.

## Specifying the data rectangle

In an ideal world, data would live in a neat rectangle in the upper left corner of a spreadsheet. But spreadsheets often serve multiple purposes for users with different priorities. It is common to encounter several rows of notes above or below the data, for example. The new `range` argument provides a flexible interface for describing the data rectangle, including Excel-style ranges and row- or column-only ranges.

```r
library(readxl)
read_excel(
  readxl_example("deaths.xlsx"),
  range = "arts!A5:F15"
)
#> # A tibble: 10 × 6
#>            Name Profession   Age `Has kids` `Date of birth`
#>
#> 1   David Bowie   musician    69       TRUE      1947-01-08
#> 2 Carrie Fisher      actor    60       TRUE      1956-10-21
#> 3   Chuck Berry   musician    90       TRUE      1926-10-18
#> 4   Bill Paxton      actor    61       TRUE      1955-05-17
#> # ... with 6 more rows, and 1 more variables: `Date of death`

read_excel(
  readxl_example("deaths.xlsx"),
  sheet = "other",
  range = cell_rows(5:15)
)
#> # A tibble: 10 × 6
#>           Name Profession   Age `Has kids` `Date of birth`
#>
#> 1   Vera Rubin  scientist    88       TRUE      1928-07-23
#> 2  Mohamed Ali    athlete    74       TRUE      1942-01-17
#> 3 Morley Safer journalist    84       TRUE      1931-11-08
#> 4 Fidel Castro politician    90       TRUE      1926-08-13
#> # ... with 6 more rows, and 1 more variables: `Date of death`
```
There is also a new argument `n_max` that limits the number of data rows read from the sheet. It is an example of [readxl](http://readxl.tidyverse.org)'s evolution towards a [readr](http://readr.tidyverse.org)-like interface. The [Sheet Geometry vignette](http://readxl.tidyverse.org/articles/sheet-geometry.html) goes over all the options.

## Column typing

The new ability to target cells for reading means that [readxl](http://readxl.tidyverse.org)'s automatic column typing will "just work" for most sheets, most of the time. Above, the `Has kids` column is automatically detected as `logical`, which is a new column type for [readxl](http://readxl.tidyverse.org).

You can still specify column type explicitly via `col_types`, which gets a couple new features. If you provide exactly one type, it is recycled to the necessary length. The new type `"guess"` can be mixed with explicit types to specify some types, while leaving others to be guessed.

```r
read_excel(
  readxl_example("deaths.xlsx"),
  range = "arts!A5:C15",
  col_types = c("guess", "skip", "numeric")
)
#> # A tibble: 10 × 2
#>            Name   Age
#>
#> 1   David Bowie    69
#> 2 Carrie Fisher    60
#> 3   Chuck Berry    90
#> 4   Bill Paxton    61
#> # ... with 6 more rows
```
…
